1 10 20
100 200 125
201 210 89
900 1000 174
1000 2000 182
5000 6000 236
9000 10000 260
10000 11000 268
50000 51000 278
200000 201000 342
201000 202000 311
500000 501000 364
501000 502000 320
900000 901000 401
2000 1000 182
6000 5000 236
10000 9000 260
11000 10000 268
51000 50000 278
201000 200000 342
202000 201000 311
501000 500000 364
502000 501000 320
901000 900000 401
1 1000 179
1 5000 238
9000 1 262
1 10000 262
50000 1 324
201000 999999 525
202000 999999 525
501000 999999 525
999999 501000 525
999999 900000 507
2000 4000 238
4000 6000 236
6000 8000 262
8000 10000 260
10000 12000 268
12000 14000 276
14000 16000 271
16000 18000 279
180000 200000 365
200000 220000 386
220000 240000 443
2000 4500 238
4000 6500 262
6000 8500 262
8000 10500 260
10400 12000 268
12005 14000 276
14030 16000 271
18500 16000 279
20500 18000 274
22000 20700 269
24000 22050 282
1 4 8
3 24 21
4 256 128
234 356 144
123 643 144
444 255 144
555 567 88
222 654 145
999 234 179
543 567 137
1 1 1
123 123 47
343 343 126
33333 33333 130
454545 454545 188
999999 999999 259
7654 7654 84
56777 56777 198
43366 43366 133
65667 65667 118
2000 3300 217
12000 13300 276
22000 23300 269
32000 33300 267
42000 43300 288
52000 53300 340
62000 63300 317
72000 73300 294
82000 83300 320
92000 93300 315
23453 25000 282
63453 65000 299
103453 105000 310
143453 145000 326
183453 185000 316
223453 225000 324
263453 265000 332
303453 305000 340
343453 345000 304
383453 385000 330
23453 25034 282
63453 65034 299
103453 105034 310
143453 145034 326
183453 185034 316
223453 225034 368
263453 265034 332
303453 305034 340
343453 345034 304
383453 385034 330
