1 10 20
100 200 125
201 210 89
900 1000 174
1 999999 525
2632 2813 173
23532 21352 282
523 1235 182
632 6431 262
72557 1235 340
63146 7134 340
13 73275 340
8365 1436 262
752 3685 217
286824 7235 443
3956 1643 238
743685 1346 509
7133 175387 383
364 72 144
8384 14637 276
13751 257 276
428 38647 324
625627 25748 470
1643 426 182
1357 135753 354
7531 13471 276
3417 4713 238
416 836 171
43864 257438 443
3647 94787 351
54736 23574 340
32654 2364 308
863 32467 308
327584 1346 443
2748 1347 209
46 6142 238
1246 1236 133
473 1463 182
752 162 171
85636 124637 354
2573 752468 509
12467 12477 201
86756 32574 351
14362 647641 509
474254 752 449
44136 7135 324
2341 275 183
725 325748 443
213 725 171
632574 143657 509
86 1643 182
416357 1358 449
3146 867426 525
1438 8456 262
751364 7134 509
164 17354 276
215 17134 276
715 3147 217
84 1346 182
395867 82456 443
84275 326478 443
827644 427563 509
752 14357 276
1357 13736 276
2753 3246 217
752 47256 324
62574 72 340
725 3467 217
7256 824576 509
356 2346 183
72564 876 340
32547 867456 525
2753 724 209
8422 4278 262
237 2347 183
2346 836 183
4 2475 209
7526 23346 279
7523 732564 509
236575 27346 443
7562 346246 443
7562 725346 509
82563 326757 443
73624 752364 509
3246 3742 238
4326 6432 262
75263 3724 340
2346 6432 262
435 7566 262
5656 2456 238
513 1997 182
61423 51 340
420 12456 268
6346 134613 354
145 235 128
723645 73641 509
753535 743675 424
72634 3442 340
4537 756426 509
6341 61253 340
2315 2351 183
76452 61243 330
3164 7523 262
415 72 144
324 4326 238
7426 832 262
845 346 171
752 8646 262
7236 2375 262
257 83437 351
4357 437 238
123 124173 354
145 715 171
751 7153 262
5432 8347 262
27 24 112
2463 72457 340
1643 6321 262
325 6413 262
2135 4613 238
2315 641 183
3215 275 217
713 275 171
1743 317 182
347 317 144
1347 3485 217
56 374 144
85 23754 282
327 2246 183
32464 734 308
87345 83457 333
3461 725 217
4752 935 238
346 8436 262
137 834 171
3624 863 217
371 3478 217
6314 1462 262
2316 1235 183
1346 3164 217
17 527 144
346 836 171
3146 834 217
432 856 171
721 83 171
3427 438 217
3472 5693 238
1436 569 182
23 94 116
27 94 116
2347 5683 238
1 100 119
1 1000 179
1 10000 262
1 100000 351
