.................
----------------------------------------------------------------------
Ran 17 tests in 31.599s

OK
Name             Stmts   Miss Branch BrPart  Cover   Missing
------------------------------------------------------------
Collatz.py          42      3     18      2    92%   40-42, 39->40, 51->61
TestCollatz.py      77      0      0      0   100%
------------------------------------------------------------
TOTAL              119      3     18      2    96%
