1 10 20
100 200 125
201 210 89
900 1000 174
123 456 144
1 100 119
1 1000 179
1 10000 262
98765 43210 351
1 1 1
1 2 2
999998 999999 259
999999 999998 259
5000 5500 192
105 106 39
10 9 20
89 98 119
69 96 116
1580 8967 262
1218 2847 209
183 483 144
17 84 116
84 67 116
840 922 179
273 7 128
2847 727 209
836 827 135
4 5 6
2 7 17
84 72 116
928 84984 351
928 836570 509
78 56 116
93 879 179
123 90 119
2 9 20
84 99 119
99 98 26
99 97 119
8 756 171
3 30 112
3 330 144
5 3303 217
34 98 119
5 9 20
4 80 116
8 60 113
3 16 20
8 16 20
2 32 112
1 3 8
1 10 20
26 187 125
29 847 171
47 156 122
389 489 142
100 101 26
200 201 27
900 901 55
999 1000 112
999 1001 143
9384 10000 242
90 1 116
10000 10000 30
85 90 31
37 187 125
29 167 122
8 56 113
9 90 116
8 80 116
7 70 113
6 60 113
5 50 112
4 40 112
3 30 112
2 20 21
1 10 20
1 11 20
2 22 21
3 33 112
78 98 119
23 34 112
34 45 110
45 56 113
56 67 108
67 78 116
78 89 111
89 90 31
90 100 119
27 349 144
97 100 119
96 300 128
286 308 118
2844 2789 173
400 500 142
200 400 144
200 800 171
490 500 142
4090 4100 158
298 300 118
28 678 145
29 190 125
