......................
----------------------------------------------------------------------
Ran 22 tests in 156.830s

OK
Name             Stmts   Miss Branch BrPart  Cover   Missing
------------------------------------------------------------
Collatz.py          61      2     26      1    97%   45-47, 165->171
TestCollatz.py      91      0      0      0   100%
------------------------------------------------------------
TOTAL              152      2     26      1    98%
