1 10 20
100 200 125
201 210 89
900 1000 174
1 1 1
661 268 145
112 822 171
577 242 144
457 177 144
53 946 179
637 236 144
831 387 171
661 314 145
500 156 144
142 172 125
679 556 145
102 101 26
468 989 179
909 312 179
417 16 144
267 63 128
648 990 179
274 510 144
193 614 144
164 339 144
904 364 179
4 736 171
7 481 144
429 717 171
995 184 179
279 637 144
713 904 179
727 793 153
899 307 179
295 171 128
339 344 126
796 388 171
348 898 179
300 633 144
992 229 179
352 65 144
719 502 171
597 38 144
446 221 144
572 247 144
42 28 110
721 723 47
682 206 145
82 868 171
554 822 171
521 864 171
542 952 179
196 304 128
917 376 179
794 358 171
635 62 144
531 146 144
214 293 128
888 171 179
202 525 144
275 708 171
749 892 179
269 645 144
509 753 171
432 662 145
47 597 144
430 120 144
291 384 144
693 62 145
733 198 171
377 177 144
2735 9255 262
8835 7731 252
9659 1521 262
5620 8453 262
2193 9647 262
5545 8466 262
3019 9599 262
8179 8874 234
3410 1729 217
8189 5906 262
2881 5729 238
5868 9051 262
8226 4984 262
6679 1448 262
761 5206 238
6929 3167 262
6853 9725 260
5752 6710 262
1025 3309 217
7002 4635 262
556 6300 262
43 6258 262
2778 4215 238
6289 7027 257
6357 7560 257
1385 8502 262
979 1830 182
6681 6037 262
1370 9448 262
4662 1198 238
2221 3147 217
296 5637 238
6542 5261 262
9117 9047 185
3964 6634 262
1901 985 182
1 999999 525
