..............
----------------------------------------------------------------------
Ran 14 tests in 0.098s

OK
Name             Stmts   Miss Branch BrPart  Cover   Missing
------------------------------------------------------------
Collatz.py          31      1     14      1    96%   55, 54->55
TestCollatz.py      61      0      0      0   100%
------------------------------------------------------------
TOTAL               92      1     14      1    98%
