1 10 20
100 200 125
201 210 89
900 1000 174
3 300000 443
5 12 20
43 56 113
45 89 116
1056 1059 81
1000 1500 182
50 70 113
80 90 111
4 6 9
800000 900000 525
89 95 106
345 347 126
889 991 174
991 1000 112
1000 1111 169
1111 2222 182
2222 3333 217
3333 3344 181
3344 3388 181
3388 3398 181
3398 4200 238
4200 5000 215
5000 6000 236
6000 8000 262
8000 10000 260
10000 14000 276
14000 18000 279
18000 22000 274
22000 34000 308
35000 36000 324
46000 50000 314
80000 90000 333
91000 92000 333
98000 99000 284
21 34 112
45 49 105
86 98 119
102 105 88
108 110 114
110 115 114
115 135 122
156 170 112
190 197 120
204 209 89
201 204 40
80000 90001 333
91000 92001 333
98000 99001 284
21 35 112
45 48 105
86 99 119
102 106 88
108 111 114
110 117 114
115 137 122
156 173 125
190 199 120
204 208 89
201 205 40
348 356 126
349 357 126
350 358 126
351 359 126
352 360 126
353 361 126
354 362 51
355 363 51
356 364 95
357 365 95
358 366 95
359 367 95
360 368 95
361 369 95
1348 1356 159
1349 1357 159
1350 1358 159
1351 1359 159
1352 1360 115
1353 1361 115
1354 1362 115
1355 1363 115
1356 1364 66
1357 1365 66
1358 1366 66
1359 1367 66
1360 1368 128
1361 1369 128
2450 2452 134
2451 2458 134
2453 2459 134
2454 2460 134
3568 4000 238
4100 4200 189
4300 4400 215
4450 4500 184
4550 4600 184
4700 4750 166
4800 4850 166
4900 4950 210
5000 5050 179
5100 5150 179
5200 5250 179
5300 5350 161
5400 5450 161
5500 5550 205
7000 7050 195
7050 7100 151
