...................
----------------------------------------------------------------------
Ran 19 tests in 2.726s

OK
Name             Stmts   Miss Branch BrPart  Cover   Missing
------------------------------------------------------------
Collatz.py          45      0     18      0   100%
TestCollatz.py      81      0      0      0   100%
------------------------------------------------------------
TOTAL              126      0     18      0   100%
