............................
----------------------------------------------------------------------
Ran 28 tests in 0.031s

OK
Name             Stmts   Miss Branch BrPart  Cover   Missing
------------------------------------------------------------
Collatz.py          88     11     34      3    82%   69-74, 79-84, 90, 67->69, 77->79, 89->90
TestCollatz.py     101      0      0      0   100%
------------------------------------------------------------
TOTAL              189     11     34      3    90%
