1 10 20
100 200 125
201 210 89
900 1000 174
333583 45986 443
500664 511283 426
237085 634143 509
915997 359846 525
847454 576557 525
879340 803696 525
41146 846179 525
668162 172776 509
236959 974133 525
426562 614763 470
728097 141574 509
753863 431132 509
718555 743433 424
987348 527265 525
549921 654395 509
66500 653649 509
488119 797296 509
86305 42658 351
420987 291955 449
646579 380393 509
912542 160198 525
174218 968943 525
859530 180065 525
17713 654972 509
758660 167111 509
345302 756592 509
852724 334336 525
776663 898382 525
502149 341273 449
492505 855393 525
699496 592632 509
64316 403253 443
732310 238163 509
865693 237015 525
852555 895877 445
425063 411849 418
904951 392022 525
838057 595611 525
470501 796626 509
732050 666252 504
279030 914404 525
416508 922440 525
127894 257950 443
489711 169231 449
389401 939384 525
928802 69714 525
134801 107061 349
945367 106649 525
578363 415355 470
783759 126005 509
241007 733271 509
999146 118549 525
304381 615599 470
446694 193669 449
169859 916849 525
826242 756063 468
670482 580147 509
411042 474239 444
446880 469166 444
179320 83162 383
228211 823210 509
801781 351794 509
160055 229640 386
230404 335822 443
969949 740858 525
514065 563614 452
474096 651777 509
406346 215705 443
119281 945933 525
651556 435976 509
594271 37484 470
448893 524309 470
824865 646992 504
848941 763462 525
322458 310412 384
818135 665302 504
248392 291813 407
549249 155883 470
502429 202907 449
147707 134423 375
141455 262848 443
663947 862989 525
469623 608562 470
740808 919227 525
622913 118892 470
848576 52014 525
252315 998659 525
300129 309502 371
77472 141545 354
310081 697756 509
751914 132817 509
686845 542623 509
184606 956085 525
126943 786117 509
648483 880425 525
562467 280648 470
655464 748425 504
741082 632176 504
586088 355237 470
718683 866724 525
510184 960454 525
493260 551076 470
180918 482146 449
61436 444182 449
410980 514242 470
601599 347053 470
25367 455952 449
524294 845849 525
117214 887063 525
612028 117367 470
581908 760328 509
387500 592601 470
936287 943000 507
164192 262345 443
608347 997598 525
227490 877568 525
463037 871036 525
487174 481569 382
726638 844990 525
257268 871926 525
333038 434260 449
82818 870332 525
799083 225995 509
432458 816612 509
849058 691422 525
15336 918812 525
131241 846996 525
12570 839905 525
287676 254699 407
637988 337122 509
969125 235737 525
33150 695910 509
144422 978162 525
904058 101083 525
591754 698914 509
53148 329251 443
516039 521332 439
558316 961793 525
238436 175354 443
657561 843520 525
537432 34279 470
163122 463364 449
640106 349578 509
894292 154802 525
743959 386746 509
110293 909827 525
45447 45608 239
851996 427573 525
117989 95526 354
991349 381801 525
31905 743073 509
593778 380431 470
529453 170301 470
982792 720491 525
44758 221574 386
503761 597587 470
257721 135 443
413803 464770 444
994424 880878 507
232595 344061 407
28990 225264 386
453162 722513 509
352292 643474 509
271712 360267 441
634353 609018 509
822387 540275 509
71995 852087 525
86710 897000 525
74952 510916 449
107284 739933 509
4254 724827 509
87801 592070 470
349831 614473 470
901832 234877 525
628414 457912 509
421688 896655 525
830426 592030 509
884838 597997 525
82985 304961 443
603792 96632 470
772507 888618 525
962262 852456 507
306710 422075 449
59642 206499 383
355806 859341 525
559213 372966 470
749585 700848 504
295447 853095 525
601472 94975 470
383102 994592 525
581349 302775 470
366977 28482 443
434390 129844 449
27280 693473 509
630446 381044 509
149966 621865 470
480282 937672 525
115694 8727 354
444393 651227 509
322526 350698 441
