64 9 113
22 82 116
43 95 116
42 88 116
57 54 113
92 49 116
88 100 119
84 99 119
46 54 113
72 73 116
33 48 110
2 49 112
10 8 20
41 100 119
80 81 23
99 88 119
74 98 119
8 85 116
41 77 116
9 66 113
85 93 93
64 69 28
7 84 116
97 2 119
87 27 116
76 54 116
28 83 116
47 27 112
13 49 112
95 2 116
32 85 116
64 86 116
24 30 112
98 48 119
21 60 113
9 95 116
40 75 116
66 97 119
3 27 112
21 93 116
93 38 116
6 88 116
96 53 116
21 23 16
45 68 113
2 13 20
94 90 106
13 53 112
57 75 116
9 26 24
8846 716 262
9569 6481 260
4320 8668 262
7033 692 262
7244 2045 262
9163 7841 252
4759 4120 215
5300 4995 192
653 2172 182
499 3771 238
3878 6050 236
7501 5709 262
9643 4175 262
8132 6260 257
9309 6698 260
2806 3059 217
8537 2256 262
9623 5619 262
2395 1767 183
7335 6526 257
3396 5329 238
8645 1170 262
5650 6144 218
6358 9838 260
1129 3772 238
6452 472 262
2627 2934 217
139 689 145
2707 3734 238
8150 7107 252
7188 7915 239
6679 1113 262
9679 7084 260
7061 2439 262
8691 8137 234
8905 8010 234
4276 6635 262
3392 9907 262
4417 3712 215
2939 4079 238
6811 5947 262
2131 6195 262
9207 1080 262
844 4009 238
9961 6864 260
1636 9725 262
1597 3937 238
9826 8781 260
6347 1098 262
8521 8014 234
60640 35516 340
96403 97207 266
59692 10323 340
31936 42494 324
36918 22819 324
87181 75897 351
53144 93404 351
45782 59090 340
31498 11526 308
67907 72566 325
35858 94323 351
31390 92597 351
72650 85435 351
54937 43139 340
39727 28877 324
75347 88211 351
82012 97743 333
59980 28808 340
75995 25896 340
49189 53513 340
68222 93190 351
16272 11503 276
64999 15609 340
84476 14296 351
45376 43300 314
82841 98434 333
59197 62994 335
12182 96460 351
68582 83215 351
63786 44052 340
37586 55651 340
52538 81327 351
16023 87949 351
68720 49128 340
35182 28125 311
67700 67349 312
36944 20478 324
35507 62258 340
46400 90075 351
98913 90648 333
84807 78312 338
49018 53304 340
48450 77216 351
84741 12719 351
91042 43552 351
50147 14556 324
30717 72198 340
66455 88544 351
44815 91881 351
75010 80969 351
189680 740088 509
119910 804469 509
765165 365062 509
539390 417398 470
979326 670848 525
519408 424052 470
539147 790729 509
519744 258756 470
928588 327261 525
732659 443070 509
259481 257510 301
170764 253854 443
905887 622003 525
449264 773618 509
813769 763423 468
549466 380986 470
510621 995565 525
412452 160560 449
802411 150876 509
519016 923329 525
600947 805456 509
635040 799791 504
700306 741650 504
240716 612899 470
856658 101222 525
878597 394880 525
132886 572781 470
277791 873749 525
878647 356131 525
817555 460816 509
515117 949087 525
447369 222689 449
864808 212559 525
630618 778383 504
107242 772131 509
293384 660396 509
303962 592262 470
422046 212494 449
534117 960002 525
991954 683724 525
706371 538337 509
693940 198381 509
529829 914234 525
873915 219496 525
888402 836000 525
801538 234692 509
462760 447567 444
118831 246956 443
159249 850110 525
999999 999999 259
